\relax 
\providecommand\hyper@newdestlabel[2]{}
\providecommand\HyperFirstAtBeginDocument{\AtBeginDocument}
\HyperFirstAtBeginDocument{\ifx\hyper@anchor\@undefined
\global\let\oldcontentsline\contentsline
\gdef\contentsline#1#2#3#4{\oldcontentsline{#1}{#2}{#3}}
\global\let\oldnewlabel\newlabel
\gdef\newlabel#1#2{\newlabelxx{#1}#2}
\gdef\newlabelxx#1#2#3#4#5#6{\oldnewlabel{#1}{{#2}{#3}}}
\AtEndDocument{\ifx\hyper@anchor\@undefined
\let\contentsline\oldcontentsline
\let\newlabel\oldnewlabel
\fi}
\fi}
\global\let\hyper@last\relax 
\gdef\HyperFirstAtBeginDocument#1{#1}
\providecommand\HyField@AuxAddToFields[1]{}
\providecommand\HyField@AuxAddToCoFields[2]{}
\providecommand \oddpage@label [2]{}
\@writefile{toc}{\contentsline {chapter}{\numberline {1}Objetivo}{1}{chapter.1}}
\@writefile{lof}{\addvspace {10\p@ }}
\@writefile{lot}{\addvspace {10\p@ }}
\newlabel{md_README}{{1}{1}{Objetivo}{chapter.1}{}}
\@writefile{toc}{\contentsline {chapter}{\numberline {2}Hierarchical Index}{3}{chapter.2}}
\@writefile{lof}{\addvspace {10\p@ }}
\@writefile{lot}{\addvspace {10\p@ }}
\@writefile{toc}{\contentsline {section}{\numberline {2.1}Class Hierarchy}{3}{section.2.1}}
\@writefile{toc}{\contentsline {chapter}{\numberline {3}Class Index}{5}{chapter.3}}
\@writefile{lof}{\addvspace {10\p@ }}
\@writefile{lot}{\addvspace {10\p@ }}
\@writefile{toc}{\contentsline {section}{\numberline {3.1}Class List}{5}{section.3.1}}
\@writefile{toc}{\contentsline {chapter}{\numberline {4}File Index}{7}{chapter.4}}
\@writefile{lof}{\addvspace {10\p@ }}
\@writefile{lot}{\addvspace {10\p@ }}
\@writefile{toc}{\contentsline {section}{\numberline {4.1}File List}{7}{section.4.1}}
\@writefile{toc}{\contentsline {chapter}{\numberline {5}Class Documentation}{9}{chapter.5}}
\@writefile{lof}{\addvspace {10\p@ }}
\@writefile{lot}{\addvspace {10\p@ }}
\@writefile{toc}{\contentsline {section}{\numberline {5.1}Ball Class Reference}{9}{section.5.1}}
\newlabel{classBall}{{5.1}{9}{Ball Class Reference}{section.5.1}{}}
\@writefile{toc}{\contentsline {subsection}{\numberline {5.1.1}Detailed Description}{12}{subsection.5.1.1}}
\@writefile{toc}{\contentsline {subsection}{\numberline {5.1.2}Constructor \& Destructor Documentation}{12}{subsection.5.1.2}}
\newlabel{classBall_a86a144d3dad6c953e422e32435923bbb}{{5.1.2}{12}{Constructor \& Destructor Documentation}{subsection.5.1.2}{}}
\@writefile{toc}{\contentsline {subsubsection}{\numberline {5.1.2.1}Ball()}{12}{subsubsection.5.1.2.1}}
\@writefile{toc}{\contentsline {subsection}{\numberline {5.1.3}Member Function Documentation}{12}{subsection.5.1.3}}
\newlabel{classBall_a4a575db97fe36b3caa001ade4affeb18}{{5.1.3}{12}{Member Function Documentation}{subsection.5.1.3}{}}
\@writefile{toc}{\contentsline {subsubsection}{\numberline {5.1.3.1}display()}{12}{subsubsection.5.1.3.1}}
\newlabel{classBall_a6806cba5442118acd06f48fd02cdd5cc}{{5.1.3.1}{12}{\texorpdfstring {display()}{display()}}{subsubsection.5.1.3.1}{}}
\@writefile{toc}{\contentsline {subsubsection}{\numberline {5.1.3.2}get\discretionary {\unhbox \voidb@x \hbox {\relax \fontsize  {7}{8}\selectfont  $\leftarrow \joinrel  \rhook $}}{}{}X()}{12}{subsubsection.5.1.3.2}}
\newlabel{classBall_ac4e44551d59c3c09d28444b41e1c623b}{{5.1.3.2}{12}{\texorpdfstring {get\+X()}{getX()}}{subsubsection.5.1.3.2}{}}
\@writefile{toc}{\contentsline {subsubsection}{\numberline {5.1.3.3}get\discretionary {\unhbox \voidb@x \hbox {\relax \fontsize  {7}{8}\selectfont  $\leftarrow \joinrel  \rhook $}}{}{}Y()}{12}{subsubsection.5.1.3.3}}
\newlabel{classBall_a9a3ffbce6eb35712d58955f1f32cebc8}{{5.1.3.3}{12}{\texorpdfstring {get\+Y()}{getY()}}{subsubsection.5.1.3.3}{}}
\@writefile{toc}{\contentsline {subsubsection}{\numberline {5.1.3.4}set\discretionary {\unhbox \voidb@x \hbox {\relax \fontsize  {7}{8}\selectfont  $\leftarrow \joinrel  \rhook $}}{}{}X()}{12}{subsubsection.5.1.3.4}}
\newlabel{classBall_ab08cd501d67b735df2aeb19a015e5bdb}{{5.1.3.4}{12}{\texorpdfstring {set\+X()}{setX()}}{subsubsection.5.1.3.4}{}}
\@writefile{toc}{\contentsline {subsubsection}{\numberline {5.1.3.5}set\discretionary {\unhbox \voidb@x \hbox {\relax \fontsize  {7}{8}\selectfont  $\leftarrow \joinrel  \rhook $}}{}{}Y()}{13}{subsubsection.5.1.3.5}}
\newlabel{classBall_a92dc65e1ed710ff01a4cbbb591ad7cb3}{{5.1.3.5}{13}{\texorpdfstring {set\+Y()}{setY()}}{subsubsection.5.1.3.5}{}}
\@writefile{toc}{\contentsline {subsubsection}{\numberline {5.1.3.6}step()}{13}{subsubsection.5.1.3.6}}
\@writefile{toc}{\contentsline {subsection}{\numberline {5.1.4}Member Data Documentation}{13}{subsection.5.1.4}}
\newlabel{classBall_a3573a38b1d3bac62a0bdf7060632bf98}{{5.1.4}{13}{Member Data Documentation}{subsection.5.1.4}{}}
\@writefile{toc}{\contentsline {subsubsection}{\numberline {5.1.4.1}g}{13}{subsubsection.5.1.4.1}}
\newlabel{classBall_a78ecb2a76fb573ad0411b040dfc84e9d}{{5.1.4.1}{13}{\texorpdfstring {g}{g}}{subsubsection.5.1.4.1}{}}
\@writefile{toc}{\contentsline {subsubsection}{\numberline {5.1.4.2}m}{13}{subsubsection.5.1.4.2}}
\newlabel{classBall_aaf3fbb4a93f5efaa933ddd63976f73b5}{{5.1.4.2}{13}{\texorpdfstring {m}{m}}{subsubsection.5.1.4.2}{}}
\@writefile{toc}{\contentsline {subsubsection}{\numberline {5.1.4.3}r}{13}{subsubsection.5.1.4.3}}
\newlabel{classBall_a4cc3e6d17874d6a99d72657af3bd3a33}{{5.1.4.3}{13}{\texorpdfstring {r}{r}}{subsubsection.5.1.4.3}{}}
\@writefile{toc}{\contentsline {subsubsection}{\numberline {5.1.4.4}vx}{13}{subsubsection.5.1.4.4}}
\newlabel{classBall_aa58f7f56586df265f2fd1d56ce1f0504}{{5.1.4.4}{13}{\texorpdfstring {vx}{vx}}{subsubsection.5.1.4.4}{}}
\@writefile{toc}{\contentsline {subsubsection}{\numberline {5.1.4.5}vy}{13}{subsubsection.5.1.4.5}}
\newlabel{classBall_a60894aab5e27e93bacf2393b9110a049}{{5.1.4.5}{13}{\texorpdfstring {vy}{vy}}{subsubsection.5.1.4.5}{}}
\@writefile{toc}{\contentsline {subsubsection}{\numberline {5.1.4.6}x}{13}{subsubsection.5.1.4.6}}
\newlabel{classBall_ab31305d68cd9cd571f119dc9f78d394c}{{5.1.4.6}{13}{\texorpdfstring {x}{x}}{subsubsection.5.1.4.6}{}}
\@writefile{toc}{\contentsline {subsubsection}{\numberline {5.1.4.7}xmax}{13}{subsubsection.5.1.4.7}}
\newlabel{classBall_ad100dde6b63de229a2bc86b9094526e1}{{5.1.4.7}{13}{\texorpdfstring {xmax}{xmax}}{subsubsection.5.1.4.7}{}}
\@writefile{toc}{\contentsline {subsubsection}{\numberline {5.1.4.8}xmin}{14}{subsubsection.5.1.4.8}}
\newlabel{classBall_a17d73231eab81d0e74cf28d0068fe5cb}{{5.1.4.8}{14}{\texorpdfstring {xmin}{xmin}}{subsubsection.5.1.4.8}{}}
\@writefile{toc}{\contentsline {subsubsection}{\numberline {5.1.4.9}y}{14}{subsubsection.5.1.4.9}}
\newlabel{classBall_ada883fa45e2bc0cbcd04fec775bfcc89}{{5.1.4.9}{14}{\texorpdfstring {y}{y}}{subsubsection.5.1.4.9}{}}
\@writefile{toc}{\contentsline {subsubsection}{\numberline {5.1.4.10}ymax}{14}{subsubsection.5.1.4.10}}
\newlabel{classBall_a01797d790fe45fc9294edece2ff72c5b}{{5.1.4.10}{14}{\texorpdfstring {ymax}{ymax}}{subsubsection.5.1.4.10}{}}
\@writefile{toc}{\contentsline {subsubsection}{\numberline {5.1.4.11}ymin}{14}{subsubsection.5.1.4.11}}
\@writefile{toc}{\contentsline {section}{\numberline {5.2}Ball\discretionary {\unhbox \voidb@x \hbox {\relax \fontsize  {7}{8}\selectfont  $\leftarrow \joinrel  \rhook $}}{}{}Drawable Class Reference}{15}{section.5.2}}
\newlabel{classBallDrawable}{{5.2}{15}{Ball\+Drawable Class Reference}{section.5.2}{}}
\@writefile{toc}{\contentsline {subsection}{\numberline {5.2.1}Detailed Description}{17}{subsection.5.2.1}}
\@writefile{toc}{\contentsline {subsection}{\numberline {5.2.2}Constructor \& Destructor Documentation}{17}{subsection.5.2.2}}
\newlabel{classBallDrawable_a50bda55f52c2ddbdf2bba8dde1471957}{{5.2.2}{17}{Constructor \& Destructor Documentation}{subsection.5.2.2}{}}
\@writefile{toc}{\contentsline {subsubsection}{\numberline {5.2.2.1}Ball\discretionary {\unhbox \voidb@x \hbox {\relax \fontsize  {7}{8}\selectfont  $\leftarrow \joinrel  \rhook $}}{}{}Drawable()}{17}{subsubsection.5.2.2.1}}
\@writefile{toc}{\contentsline {subsection}{\numberline {5.2.3}Member Function Documentation}{17}{subsection.5.2.3}}
\newlabel{classBallDrawable_a934809e648474de989666d41a34a880e}{{5.2.3}{17}{Member Function Documentation}{subsection.5.2.3}{}}
\@writefile{toc}{\contentsline {subsubsection}{\numberline {5.2.3.1}display()}{17}{subsubsection.5.2.3.1}}
\newlabel{classBallDrawable_ae7cf6aaf513598338f14fc5c04bb7aed}{{5.2.3.1}{17}{\texorpdfstring {display()}{display()}}{subsubsection.5.2.3.1}{}}
\@writefile{toc}{\contentsline {subsubsection}{\numberline {5.2.3.2}draw()}{17}{subsubsection.5.2.3.2}}
\@writefile{toc}{\contentsline {section}{\numberline {5.3}Drawable Class Reference}{17}{section.5.3}}
\newlabel{classDrawable}{{5.3}{17}{Drawable Class Reference}{section.5.3}{}}
\@writefile{toc}{\contentsline {subsection}{\numberline {5.3.1}Member Function Documentation}{18}{subsection.5.3.1}}
\newlabel{classDrawable_a1231e00fe6022c2ff0e8d61fd23c5c23}{{5.3.1}{18}{Member Function Documentation}{subsection.5.3.1}{}}
\@writefile{toc}{\contentsline {subsubsection}{\numberline {5.3.1.1}draw()}{18}{subsubsection.5.3.1.1}}
\@writefile{toc}{\contentsline {section}{\numberline {5.4}Figure Class Reference}{19}{section.5.4}}
\newlabel{classFigure}{{5.4}{19}{Figure Class Reference}{section.5.4}{}}
\@writefile{toc}{\contentsline {subsection}{\numberline {5.4.1}Constructor \& Destructor Documentation}{20}{subsection.5.4.1}}
\newlabel{classFigure_a9c58a51110b7035bb899035b15f6aa6d}{{5.4.1}{20}{Constructor \& Destructor Documentation}{subsection.5.4.1}{}}
\@writefile{toc}{\contentsline {subsubsection}{\numberline {5.4.1.1}Figure()}{20}{subsubsection.5.4.1.1}}
\newlabel{classFigure_af155c20558330034441de6a19d94f4a7}{{5.4.1.1}{20}{\texorpdfstring {Figure()}{Figure()}}{subsubsection.5.4.1.1}{}}
\@writefile{toc}{\contentsline {subsubsection}{\numberline {5.4.1.2}$\sim $\discretionary {\unhbox \voidb@x \hbox {\relax \fontsize  {7}{8}\selectfont  $\leftarrow \joinrel  \rhook $}}{}{}Figure()}{21}{subsubsection.5.4.1.2}}
\@writefile{toc}{\contentsline {subsection}{\numberline {5.4.2}Member Function Documentation}{21}{subsection.5.4.2}}
\newlabel{classFigure_ac4960ce394966b1171c8ea49fb694cef}{{5.4.2}{21}{Member Function Documentation}{subsection.5.4.2}{}}
\@writefile{toc}{\contentsline {subsubsection}{\numberline {5.4.2.1}add\discretionary {\unhbox \voidb@x \hbox {\relax \fontsize  {7}{8}\selectfont  $\leftarrow \joinrel  \rhook $}}{}{}Drawable()}{21}{subsubsection.5.4.2.1}}
\newlabel{classFigure_afb62fad838fc6f7ece4f88b318b5862a}{{5.4.2.1}{21}{\texorpdfstring {add\+Drawable()}{addDrawable()}}{subsubsection.5.4.2.1}{}}
\@writefile{toc}{\contentsline {subsubsection}{\numberline {5.4.2.2}draw()}{21}{subsubsection.5.4.2.2}}
\newlabel{classFigure_a7c99f033d2de6e1148bfd972610ad61b}{{5.4.2.2}{21}{\texorpdfstring {draw()}{draw()}}{subsubsection.5.4.2.2}{}}
\@writefile{toc}{\contentsline {subsubsection}{\numberline {5.4.2.3}draw\discretionary {\unhbox \voidb@x \hbox {\relax \fontsize  {7}{8}\selectfont  $\leftarrow \joinrel  \rhook $}}{}{}Circle()}{21}{subsubsection.5.4.2.3}}
\newlabel{classFigure_ad5edf6262504de7c3c7eff6eb8be3c3e}{{5.4.2.3}{21}{\texorpdfstring {draw\+Circle()}{drawCircle()}}{subsubsection.5.4.2.3}{}}
\@writefile{toc}{\contentsline {subsubsection}{\numberline {5.4.2.4}draw\discretionary {\unhbox \voidb@x \hbox {\relax \fontsize  {7}{8}\selectfont  $\leftarrow \joinrel  \rhook $}}{}{}Line()}{21}{subsubsection.5.4.2.4}}
\newlabel{classFigure_a8d06d9d1a75b58c6f40881c0737bc5e2}{{5.4.2.4}{21}{\texorpdfstring {draw\+Line()}{drawLine()}}{subsubsection.5.4.2.4}{}}
\@writefile{toc}{\contentsline {subsubsection}{\numberline {5.4.2.5}draw\discretionary {\unhbox \voidb@x \hbox {\relax \fontsize  {7}{8}\selectfont  $\leftarrow \joinrel  \rhook $}}{}{}String()}{21}{subsubsection.5.4.2.5}}
\newlabel{classFigure_a6f239679543a9154ca1b6523094f7eae}{{5.4.2.5}{21}{\texorpdfstring {draw\+String()}{drawString()}}{subsubsection.5.4.2.5}{}}
\@writefile{toc}{\contentsline {subsubsection}{\numberline {5.4.2.6}remove\discretionary {\unhbox \voidb@x \hbox {\relax \fontsize  {7}{8}\selectfont  $\leftarrow \joinrel  \rhook $}}{}{}Drawables()}{21}{subsubsection.5.4.2.6}}
\newlabel{classFigure_a876db9bf0c44bcdcdac91f7d040d5f71}{{5.4.2.6}{21}{\texorpdfstring {remove\+Drawables()}{removeDrawables()}}{subsubsection.5.4.2.6}{}}
\@writefile{toc}{\contentsline {subsubsection}{\numberline {5.4.2.7}reshape()}{22}{subsubsection.5.4.2.7}}
\newlabel{classFigure_ac78a5c4997e27f48b40a2d86a4b92b9c}{{5.4.2.7}{22}{\texorpdfstring {reshape()}{reshape()}}{subsubsection.5.4.2.7}{}}
\@writefile{toc}{\contentsline {subsubsection}{\numberline {5.4.2.8}update()}{22}{subsubsection.5.4.2.8}}
\@writefile{toc}{\contentsline {section}{\numberline {5.5}Mass Class Reference}{22}{section.5.5}}
\newlabel{classMass}{{5.5}{22}{Mass Class Reference}{section.5.5}{}}
\@writefile{toc}{\contentsline {subsection}{\numberline {5.5.1}Constructor \& Destructor Documentation}{24}{subsection.5.5.1}}
\newlabel{classMass_aa5d7017a4539bd4b76422cf193a0d23c}{{5.5.1}{24}{Constructor \& Destructor Documentation}{subsection.5.5.1}{}}
\@writefile{toc}{\contentsline {subsubsection}{\numberline {5.5.1.1}Mass()\hspace  {0.1cm}{\relax \fontsize  {8}{9.5}\selectfont  \abovedisplayskip 6\p@ plus2\p@ minus4\p@ \abovedisplayshortskip \z@ plus\p@ \belowdisplayshortskip 3\p@ plus\p@ minus2\p@ \def \leftmargin \leftmargini \parsep 4\p@ plus2\p@ minus\p@ \topsep 8\p@ plus2\p@ minus4\p@ \itemsep 4\p@ plus2\p@ minus\p@ {\leftmargin \leftmargini \topsep 3\p@ plus\p@ minus\p@ \parsep 2\p@ plus\p@ minus\p@ \itemsep \parsep }\belowdisplayskip \abovedisplayskip \ttfamily  [1/2]}}{24}{subsubsection.5.5.1.1}}
\newlabel{classMass_adc27886a699de8add33229abb90a5469}{{5.5.1.1}{24}{\texorpdfstring {Mass()}{Mass()}\hspace {0.1cm}{\footnotesize \ttfamily [1/2]}}{subsubsection.5.5.1.1}{}}
\@writefile{toc}{\contentsline {subsubsection}{\numberline {5.5.1.2}Mass()\hspace  {0.1cm}{\relax \fontsize  {8}{9.5}\selectfont  \abovedisplayskip 6\p@ plus2\p@ minus4\p@ \abovedisplayshortskip \z@ plus\p@ \belowdisplayshortskip 3\p@ plus\p@ minus2\p@ \def \leftmargin \leftmargini \parsep 4\p@ plus2\p@ minus\p@ \topsep 8\p@ plus2\p@ minus4\p@ \itemsep 4\p@ plus2\p@ minus\p@ {\leftmargin \leftmargini \topsep 3\p@ plus\p@ minus\p@ \parsep 2\p@ plus\p@ minus\p@ \itemsep \parsep }\belowdisplayskip \abovedisplayskip \ttfamily  [2/2]}}{24}{subsubsection.5.5.1.2}}
\@writefile{toc}{\contentsline {subsection}{\numberline {5.5.2}Member Function Documentation}{24}{subsection.5.5.2}}
\newlabel{classMass_aa4c034fd024e5ef2c81b4f9b5ff4ca7a}{{5.5.2}{24}{Member Function Documentation}{subsection.5.5.2}{}}
\@writefile{toc}{\contentsline {subsubsection}{\numberline {5.5.2.1}add\discretionary {\unhbox \voidb@x \hbox {\relax \fontsize  {7}{8}\selectfont  $\leftarrow \joinrel  \rhook $}}{}{}Force()}{24}{subsubsection.5.5.2.1}}
\newlabel{classMass_a5296c919bc09faea8152b8d40c66f92f}{{5.5.2.1}{24}{\texorpdfstring {add\+Force()}{addForce()}}{subsubsection.5.5.2.1}{}}
\@writefile{toc}{\contentsline {subsubsection}{\numberline {5.5.2.2}get\discretionary {\unhbox \voidb@x \hbox {\relax \fontsize  {7}{8}\selectfont  $\leftarrow \joinrel  \rhook $}}{}{}Energy()}{24}{subsubsection.5.5.2.2}}
\newlabel{classMass_a41b3a36c1f242dd8a7018693de3a59bb}{{5.5.2.2}{24}{\texorpdfstring {get\+Energy()}{getEnergy()}}{subsubsection.5.5.2.2}{}}
\@writefile{toc}{\contentsline {subsubsection}{\numberline {5.5.2.3}get\discretionary {\unhbox \voidb@x \hbox {\relax \fontsize  {7}{8}\selectfont  $\leftarrow \joinrel  \rhook $}}{}{}Force()}{25}{subsubsection.5.5.2.3}}
\newlabel{classMass_a99e1ec35c6095c90a4b631228f04900f}{{5.5.2.3}{25}{\texorpdfstring {get\+Force()}{getForce()}}{subsubsection.5.5.2.3}{}}
\@writefile{toc}{\contentsline {subsubsection}{\numberline {5.5.2.4}get\discretionary {\unhbox \voidb@x \hbox {\relax \fontsize  {7}{8}\selectfont  $\leftarrow \joinrel  \rhook $}}{}{}Mass()}{25}{subsubsection.5.5.2.4}}
\newlabel{classMass_a7b244f213544f309b07970e4883089dc}{{5.5.2.4}{25}{\texorpdfstring {get\+Mass()}{getMass()}}{subsubsection.5.5.2.4}{}}
\@writefile{toc}{\contentsline {subsubsection}{\numberline {5.5.2.5}get\discretionary {\unhbox \voidb@x \hbox {\relax \fontsize  {7}{8}\selectfont  $\leftarrow \joinrel  \rhook $}}{}{}Position()}{25}{subsubsection.5.5.2.5}}
\newlabel{classMass_a9ec88fcb850a603f9f9085cfe09796ee}{{5.5.2.5}{25}{\texorpdfstring {get\+Position()}{getPosition()}}{subsubsection.5.5.2.5}{}}
\@writefile{toc}{\contentsline {subsubsection}{\numberline {5.5.2.6}get\discretionary {\unhbox \voidb@x \hbox {\relax \fontsize  {7}{8}\selectfont  $\leftarrow \joinrel  \rhook $}}{}{}Radius()}{25}{subsubsection.5.5.2.6}}
\newlabel{classMass_adba409e1c341b4709a2545a354b8c91d}{{5.5.2.6}{25}{\texorpdfstring {get\+Radius()}{getRadius()}}{subsubsection.5.5.2.6}{}}
\@writefile{toc}{\contentsline {subsubsection}{\numberline {5.5.2.7}get\discretionary {\unhbox \voidb@x \hbox {\relax \fontsize  {7}{8}\selectfont  $\leftarrow \joinrel  \rhook $}}{}{}Velocity()}{25}{subsubsection.5.5.2.7}}
\newlabel{classMass_a0e1280cef830d9d160577fe3d46ac6f5}{{5.5.2.7}{25}{\texorpdfstring {get\+Velocity()}{getVelocity()}}{subsubsection.5.5.2.7}{}}
\@writefile{toc}{\contentsline {subsubsection}{\numberline {5.5.2.8}set\discretionary {\unhbox \voidb@x \hbox {\relax \fontsize  {7}{8}\selectfont  $\leftarrow \joinrel  \rhook $}}{}{}Force()}{25}{subsubsection.5.5.2.8}}
\newlabel{classMass_af603ce820dd8afd520a98d8ac4f00933}{{5.5.2.8}{25}{\texorpdfstring {set\+Force()}{setForce()}}{subsubsection.5.5.2.8}{}}
\@writefile{toc}{\contentsline {subsubsection}{\numberline {5.5.2.9}step()}{25}{subsubsection.5.5.2.9}}
\@writefile{toc}{\contentsline {subsection}{\numberline {5.5.3}Member Data Documentation}{25}{subsection.5.5.3}}
\newlabel{classMass_a0e78a40a61856046fe535f49c66ba04c}{{5.5.3}{25}{Member Data Documentation}{subsection.5.5.3}{}}
\@writefile{toc}{\contentsline {subsubsection}{\numberline {5.5.3.1}force}{25}{subsubsection.5.5.3.1}}
\newlabel{classMass_a8f37b93ded277000424b7a92adcf9c30}{{5.5.3.1}{25}{\texorpdfstring {force}{force}}{subsubsection.5.5.3.1}{}}
\@writefile{toc}{\contentsline {subsubsection}{\numberline {5.5.3.2}mass}{25}{subsubsection.5.5.3.2}}
\newlabel{classMass_a6a0d58d24ab413d10d0cee1f3fb82bf7}{{5.5.3.2}{25}{\texorpdfstring {mass}{mass}}{subsubsection.5.5.3.2}{}}
\@writefile{toc}{\contentsline {subsubsection}{\numberline {5.5.3.3}position}{26}{subsubsection.5.5.3.3}}
\newlabel{classMass_afca87b38f7a4a6c4cfadbfba313dc4cf}{{5.5.3.3}{26}{\texorpdfstring {position}{position}}{subsubsection.5.5.3.3}{}}
\@writefile{toc}{\contentsline {subsubsection}{\numberline {5.5.3.4}radius}{26}{subsubsection.5.5.3.4}}
\newlabel{classMass_ab3825e4083083ba184e5060303b913a7}{{5.5.3.4}{26}{\texorpdfstring {radius}{radius}}{subsubsection.5.5.3.4}{}}
\@writefile{toc}{\contentsline {subsubsection}{\numberline {5.5.3.5}velocity}{26}{subsubsection.5.5.3.5}}
\newlabel{classMass_a6f2faa75c028993b95f07db8acbe1816}{{5.5.3.5}{26}{\texorpdfstring {velocity}{velocity}}{subsubsection.5.5.3.5}{}}
\@writefile{toc}{\contentsline {subsubsection}{\numberline {5.5.3.6}xmax}{26}{subsubsection.5.5.3.6}}
\newlabel{classMass_ad8c92b972c0c32e382bdd180cef9fa37}{{5.5.3.6}{26}{\texorpdfstring {xmax}{xmax}}{subsubsection.5.5.3.6}{}}
\@writefile{toc}{\contentsline {subsubsection}{\numberline {5.5.3.7}xmin}{26}{subsubsection.5.5.3.7}}
\newlabel{classMass_a2d5d2f1659dfc4b43096e6f5140114cc}{{5.5.3.7}{26}{\texorpdfstring {xmin}{xmin}}{subsubsection.5.5.3.7}{}}
\@writefile{toc}{\contentsline {subsubsection}{\numberline {5.5.3.8}ymax}{26}{subsubsection.5.5.3.8}}
\newlabel{classMass_a994eea18acef1ab497634ae6c45e627a}{{5.5.3.8}{26}{\texorpdfstring {ymax}{ymax}}{subsubsection.5.5.3.8}{}}
\@writefile{toc}{\contentsline {subsubsection}{\numberline {5.5.3.9}ymin}{26}{subsubsection.5.5.3.9}}
\@writefile{toc}{\contentsline {section}{\numberline {5.6}Simulation Class Reference}{27}{section.5.6}}
\newlabel{classSimulation}{{5.6}{27}{Simulation Class Reference}{section.5.6}{}}
\@writefile{toc}{\contentsline {subsection}{\numberline {5.6.1}Detailed Description}{28}{subsection.5.6.1}}
\@writefile{toc}{\contentsline {subsection}{\numberline {5.6.2}Member Function Documentation}{28}{subsection.5.6.2}}
\newlabel{classSimulation_a6f8e5272dbb5dea34970f0695419ff03}{{5.6.2}{28}{Member Function Documentation}{subsection.5.6.2}{}}
\@writefile{toc}{\contentsline {subsubsection}{\numberline {5.6.2.1}display()}{28}{subsubsection.5.6.2.1}}
\newlabel{classSimulation_a1040e261c063e307871fb1dfe664fb0a}{{5.6.2.1}{28}{\texorpdfstring {display()}{display()}}{subsubsection.5.6.2.1}{}}
\@writefile{toc}{\contentsline {subsubsection}{\numberline {5.6.2.2}step()}{28}{subsubsection.5.6.2.2}}
\@writefile{toc}{\contentsline {section}{\numberline {5.7}Spring Class Reference}{29}{section.5.7}}
\newlabel{classSpring}{{5.7}{29}{Spring Class Reference}{section.5.7}{}}
\@writefile{toc}{\contentsline {subsection}{\numberline {5.7.1}Constructor \& Destructor Documentation}{29}{subsection.5.7.1}}
\newlabel{classSpring_a5ac543bef2d6df83a2f1799889815323}{{5.7.1}{29}{Constructor \& Destructor Documentation}{subsection.5.7.1}{}}
\@writefile{toc}{\contentsline {subsubsection}{\numberline {5.7.1.1}Spring()}{29}{subsubsection.5.7.1.1}}
\@writefile{toc}{\contentsline {subsection}{\numberline {5.7.2}Member Function Documentation}{30}{subsection.5.7.2}}
\newlabel{classSpring_a58ef4f35d8a552adb76662b4d7615741}{{5.7.2}{30}{Member Function Documentation}{subsection.5.7.2}{}}
\@writefile{toc}{\contentsline {subsubsection}{\numberline {5.7.2.1}get\discretionary {\unhbox \voidb@x \hbox {\relax \fontsize  {7}{8}\selectfont  $\leftarrow \joinrel  \rhook $}}{}{}Energy()}{30}{subsubsection.5.7.2.1}}
\newlabel{classSpring_a9b4eb2edf28f7d03f5acc7f8d276207f}{{5.7.2.1}{30}{\texorpdfstring {get\+Energy()}{getEnergy()}}{subsubsection.5.7.2.1}{}}
\@writefile{toc}{\contentsline {subsubsection}{\numberline {5.7.2.2}get\discretionary {\unhbox \voidb@x \hbox {\relax \fontsize  {7}{8}\selectfont  $\leftarrow \joinrel  \rhook $}}{}{}Force()}{30}{subsubsection.5.7.2.2}}
\newlabel{classSpring_abac33a6e28978c4b09cee7f4709b9387}{{5.7.2.2}{30}{\texorpdfstring {get\+Force()}{getForce()}}{subsubsection.5.7.2.2}{}}
\@writefile{toc}{\contentsline {subsubsection}{\numberline {5.7.2.3}get\discretionary {\unhbox \voidb@x \hbox {\relax \fontsize  {7}{8}\selectfont  $\leftarrow \joinrel  \rhook $}}{}{}Length()}{30}{subsubsection.5.7.2.3}}
\newlabel{classSpring_af5b4786fc1829f556755c390a7c461bc}{{5.7.2.3}{30}{\texorpdfstring {get\+Length()}{getLength()}}{subsubsection.5.7.2.3}{}}
\@writefile{toc}{\contentsline {subsubsection}{\numberline {5.7.2.4}get\discretionary {\unhbox \voidb@x \hbox {\relax \fontsize  {7}{8}\selectfont  $\leftarrow \joinrel  \rhook $}}{}{}Mass1()}{30}{subsubsection.5.7.2.4}}
\newlabel{classSpring_abcb4acf6d6f01eeff3b20c59674c05d3}{{5.7.2.4}{30}{\texorpdfstring {get\+Mass1()}{getMass1()}}{subsubsection.5.7.2.4}{}}
\@writefile{toc}{\contentsline {subsubsection}{\numberline {5.7.2.5}get\discretionary {\unhbox \voidb@x \hbox {\relax \fontsize  {7}{8}\selectfont  $\leftarrow \joinrel  \rhook $}}{}{}Mass2()}{30}{subsubsection.5.7.2.5}}
\@writefile{toc}{\contentsline {subsection}{\numberline {5.7.3}Member Data Documentation}{30}{subsection.5.7.3}}
\newlabel{classSpring_a3f82602a9f227c354d537fbf6c0344ec}{{5.7.3}{30}{Member Data Documentation}{subsection.5.7.3}{}}
\@writefile{toc}{\contentsline {subsubsection}{\numberline {5.7.3.1}damping}{30}{subsubsection.5.7.3.1}}
\newlabel{classSpring_ab89136b001acfb27f95271781651c7f2}{{5.7.3.1}{30}{\texorpdfstring {damping}{damping}}{subsubsection.5.7.3.1}{}}
\@writefile{toc}{\contentsline {subsubsection}{\numberline {5.7.3.2}mass1}{30}{subsubsection.5.7.3.2}}
\newlabel{classSpring_af687f55d26b9799e7d7348104843855c}{{5.7.3.2}{30}{\texorpdfstring {mass1}{mass1}}{subsubsection.5.7.3.2}{}}
\@writefile{toc}{\contentsline {subsubsection}{\numberline {5.7.3.3}mass2}{30}{subsubsection.5.7.3.3}}
\newlabel{classSpring_a2b0a17c4655fda4b082289f5ff867197}{{5.7.3.3}{30}{\texorpdfstring {mass2}{mass2}}{subsubsection.5.7.3.3}{}}
\@writefile{toc}{\contentsline {subsubsection}{\numberline {5.7.3.4}natural\discretionary {\unhbox \voidb@x \hbox {\relax \fontsize  {7}{8}\selectfont  $\leftarrow \joinrel  \rhook $}}{}{}Length}{30}{subsubsection.5.7.3.4}}
\newlabel{classSpring_ada28143dab8bf8718b542c44b64e599f}{{5.7.3.4}{30}{\texorpdfstring {natural\+Length}{naturalLength}}{subsubsection.5.7.3.4}{}}
\@writefile{toc}{\contentsline {subsubsection}{\numberline {5.7.3.5}stiff}{31}{subsubsection.5.7.3.5}}
\newlabel{classSpring_aed22a149191c40dcef27af3e029e60fd}{{5.7.3.5}{31}{\texorpdfstring {stiff}{stiff}}{subsubsection.5.7.3.5}{}}
\@writefile{toc}{\contentsline {subsubsection}{\numberline {5.7.3.6}stiffness}{31}{subsubsection.5.7.3.6}}
\@writefile{toc}{\contentsline {section}{\numberline {5.8}Spring\discretionary {\unhbox \voidb@x \hbox {\relax \fontsize  {7}{8}\selectfont  $\leftarrow \joinrel  \rhook $}}{}{}Mass Class Reference}{31}{section.5.8}}
\newlabel{classSpringMass}{{5.8}{31}{Spring\+Mass Class Reference}{section.5.8}{}}
\@writefile{toc}{\contentsline {subsection}{\numberline {5.8.1}Constructor \& Destructor Documentation}{32}{subsection.5.8.1}}
\newlabel{classSpringMass_a5c94ec5d3adf73a7b3b7e9dd10045132}{{5.8.1}{32}{Constructor \& Destructor Documentation}{subsection.5.8.1}{}}
\@writefile{toc}{\contentsline {subsubsection}{\numberline {5.8.1.1}Spring\discretionary {\unhbox \voidb@x \hbox {\relax \fontsize  {7}{8}\selectfont  $\leftarrow \joinrel  \rhook $}}{}{}Mass()}{32}{subsubsection.5.8.1.1}}
\@writefile{toc}{\contentsline {subsection}{\numberline {5.8.2}Member Function Documentation}{32}{subsection.5.8.2}}
\newlabel{classSpringMass_a97dc8e01e829e466198b3a8c201a5b13}{{5.8.2}{32}{Member Function Documentation}{subsection.5.8.2}{}}
\@writefile{toc}{\contentsline {subsubsection}{\numberline {5.8.2.1}display()}{32}{subsubsection.5.8.2.1}}
\newlabel{classSpringMass_a1700091076aa83fff57fdec6876bf138}{{5.8.2.1}{32}{\texorpdfstring {display()}{display()}}{subsubsection.5.8.2.1}{}}
\@writefile{toc}{\contentsline {subsubsection}{\numberline {5.8.2.2}get\discretionary {\unhbox \voidb@x \hbox {\relax \fontsize  {7}{8}\selectfont  $\leftarrow \joinrel  \rhook $}}{}{}Energy()}{33}{subsubsection.5.8.2.2}}
\newlabel{classSpringMass_a187503b09da458570891a38612864e75}{{5.8.2.2}{33}{\texorpdfstring {get\+Energy()}{getEnergy()}}{subsubsection.5.8.2.2}{}}
\@writefile{toc}{\contentsline {subsubsection}{\numberline {5.8.2.3}step()}{33}{subsubsection.5.8.2.3}}
\@writefile{toc}{\contentsline {subsection}{\numberline {5.8.3}Member Data Documentation}{33}{subsection.5.8.3}}
\newlabel{classSpringMass_a8153c487713e1eea29caf109bc49e373}{{5.8.3}{33}{Member Data Documentation}{subsection.5.8.3}{}}
\@writefile{toc}{\contentsline {subsubsection}{\numberline {5.8.3.1}gravity}{33}{subsubsection.5.8.3.1}}
\@writefile{toc}{\contentsline {section}{\numberline {5.9}Spring\discretionary {\unhbox \voidb@x \hbox {\relax \fontsize  {7}{8}\selectfont  $\leftarrow \joinrel  \rhook $}}{}{}Mass\discretionary {\unhbox \voidb@x \hbox {\relax \fontsize  {7}{8}\selectfont  $\leftarrow \joinrel  \rhook $}}{}{}Drawable Class Reference}{33}{section.5.9}}
\newlabel{classSpringMassDrawable}{{5.9}{33}{Spring\+Mass\+Drawable Class Reference}{section.5.9}{}}
\@writefile{toc}{\contentsline {subsection}{\numberline {5.9.1}Detailed Description}{34}{subsection.5.9.1}}
\@writefile{toc}{\contentsline {section}{\numberline {5.10}Vector2 Class Reference}{34}{section.5.10}}
\newlabel{classVector2}{{5.10}{34}{Vector2 Class Reference}{section.5.10}{}}
\@writefile{toc}{\contentsline {subsection}{\numberline {5.10.1}Constructor \& Destructor Documentation}{35}{subsection.5.10.1}}
\newlabel{classVector2_a22104d1809be26a419ef1f959e3761bf}{{5.10.1}{35}{Constructor \& Destructor Documentation}{subsection.5.10.1}{}}
\@writefile{toc}{\contentsline {subsubsection}{\numberline {5.10.1.1}Vector2()\hspace  {0.1cm}{\relax \fontsize  {8}{9.5}\selectfont  \abovedisplayskip 6\p@ plus2\p@ minus4\p@ \abovedisplayshortskip \z@ plus\p@ \belowdisplayshortskip 3\p@ plus\p@ minus2\p@ \def \leftmargin \leftmargini \parsep 4\p@ plus2\p@ minus\p@ \topsep 8\p@ plus2\p@ minus4\p@ \itemsep 4\p@ plus2\p@ minus\p@ {\leftmargin \leftmargini \topsep 3\p@ plus\p@ minus\p@ \parsep 2\p@ plus\p@ minus\p@ \itemsep \parsep }\belowdisplayskip \abovedisplayskip \ttfamily  [1/2]}}{35}{subsubsection.5.10.1.1}}
\newlabel{classVector2_a861062b13bd0e92d50b3ffd90c9edd77}{{5.10.1.1}{35}{\texorpdfstring {Vector2()}{Vector2()}\hspace {0.1cm}{\footnotesize \ttfamily [1/2]}}{subsubsection.5.10.1.1}{}}
\@writefile{toc}{\contentsline {subsubsection}{\numberline {5.10.1.2}Vector2()\hspace  {0.1cm}{\relax \fontsize  {8}{9.5}\selectfont  \abovedisplayskip 6\p@ plus2\p@ minus4\p@ \abovedisplayshortskip \z@ plus\p@ \belowdisplayshortskip 3\p@ plus\p@ minus2\p@ \def \leftmargin \leftmargini \parsep 4\p@ plus2\p@ minus\p@ \topsep 8\p@ plus2\p@ minus4\p@ \itemsep 4\p@ plus2\p@ minus\p@ {\leftmargin \leftmargini \topsep 3\p@ plus\p@ minus\p@ \parsep 2\p@ plus\p@ minus\p@ \itemsep \parsep }\belowdisplayskip \abovedisplayskip \ttfamily  [2/2]}}{35}{subsubsection.5.10.1.2}}
\@writefile{toc}{\contentsline {subsection}{\numberline {5.10.2}Member Function Documentation}{36}{subsection.5.10.2}}
\newlabel{classVector2_aa237ac7d74130707d189c3740bc34f94}{{5.10.2}{36}{Member Function Documentation}{subsection.5.10.2}{}}
\@writefile{toc}{\contentsline {subsubsection}{\numberline {5.10.2.1}norm()}{36}{subsubsection.5.10.2.1}}
\newlabel{classVector2_a08452f15b4693e07c992b77053b24d89}{{5.10.2.1}{36}{\texorpdfstring {norm()}{norm()}}{subsubsection.5.10.2.1}{}}
\@writefile{toc}{\contentsline {subsubsection}{\numberline {5.10.2.2}norm2()}{36}{subsubsection.5.10.2.2}}
\@writefile{toc}{\contentsline {subsection}{\numberline {5.10.3}Member Data Documentation}{36}{subsection.5.10.3}}
\newlabel{classVector2_a61d73d9036ccbb3257fbe595c014a1d0}{{5.10.3}{36}{Member Data Documentation}{subsection.5.10.3}{}}
\@writefile{toc}{\contentsline {subsubsection}{\numberline {5.10.3.1}x}{36}{subsubsection.5.10.3.1}}
\newlabel{classVector2_a4df9b2a8e79e6e30a7a3b34722d8b8b8}{{5.10.3.1}{36}{\texorpdfstring {x}{x}}{subsubsection.5.10.3.1}{}}
\@writefile{toc}{\contentsline {subsubsection}{\numberline {5.10.3.2}y}{36}{subsubsection.5.10.3.2}}
\@writefile{toc}{\contentsline {chapter}{\numberline {6}File Documentation}{37}{chapter.6}}
\@writefile{lof}{\addvspace {10\p@ }}
\@writefile{lot}{\addvspace {10\p@ }}
\@writefile{toc}{\contentsline {section}{\numberline {6.1}ball.\discretionary {\unhbox \voidb@x \hbox {\relax \fontsize  {7}{8}\selectfont  $\leftarrow \joinrel  \rhook $}}{}{}cpp File Reference}{37}{section.6.1}}
\newlabel{ball_8cpp}{{6.1}{37}{ball.\+cpp File Reference}{section.6.1}{}}
\@writefile{toc}{\contentsline {section}{\numberline {6.2}ball.\discretionary {\unhbox \voidb@x \hbox {\relax \fontsize  {7}{8}\selectfont  $\leftarrow \joinrel  \rhook $}}{}{}h File Reference}{37}{section.6.2}}
\newlabel{ball_8h}{{6.2}{37}{ball.\+h File Reference}{section.6.2}{}}
\@writefile{toc}{\contentsline {section}{\numberline {6.3}graphics.\discretionary {\unhbox \voidb@x \hbox {\relax \fontsize  {7}{8}\selectfont  $\leftarrow \joinrel  \rhook $}}{}{}cpp File Reference}{38}{section.6.3}}
\newlabel{graphics_8cpp}{{6.3}{38}{graphics.\+cpp File Reference}{section.6.3}{}}
\@writefile{toc}{\contentsline {subsection}{\numberline {6.3.1}Typedef Documentation}{39}{subsection.6.3.1}}
\newlabel{graphics_8cpp_abe02648a451965fae83d1276b6073260}{{6.3.1}{39}{Typedef Documentation}{subsection.6.3.1}{}}
\@writefile{toc}{\contentsline {subsubsection}{\numberline {6.3.1.1}figures\discretionary {\unhbox \voidb@x \hbox {\relax \fontsize  {7}{8}\selectfont  $\leftarrow \joinrel  \rhook $}}{}{}\_\discretionary {\unhbox \voidb@x \hbox {\relax \fontsize  {7}{8}\selectfont  $\leftarrow \joinrel  \rhook $}}{}{}t}{39}{subsubsection.6.3.1.1}}
\@writefile{toc}{\contentsline {subsection}{\numberline {6.3.2}Function Documentation}{39}{subsection.6.3.2}}
\newlabel{graphics_8cpp_adcd2119d5c903d502202458acaaa04b1}{{6.3.2}{39}{Function Documentation}{subsection.6.3.2}{}}
\@writefile{toc}{\contentsline {subsubsection}{\numberline {6.3.2.1}handle\discretionary {\unhbox \voidb@x \hbox {\relax \fontsize  {7}{8}\selectfont  $\leftarrow \joinrel  \rhook $}}{}{}Timer()}{39}{subsubsection.6.3.2.1}}
\newlabel{graphics_8cpp_ace3c148657c05d4b13aab34ffef560fe}{{6.3.2.1}{39}{\texorpdfstring {handle\+Timer()}{handleTimer()}}{subsubsection.6.3.2.1}{}}
\@writefile{toc}{\contentsline {subsubsection}{\numberline {6.3.2.2}R\discretionary {\unhbox \voidb@x \hbox {\relax \fontsize  {7}{8}\selectfont  $\leftarrow \joinrel  \rhook $}}{}{}O\discretionary {\unhbox \voidb@x \hbox {\relax \fontsize  {7}{8}\selectfont  $\leftarrow \joinrel  \rhook $}}{}{}U\discretionary {\unhbox \voidb@x \hbox {\relax \fontsize  {7}{8}\selectfont  $\leftarrow \joinrel  \rhook $}}{}{}N\discretionary {\unhbox \voidb@x \hbox {\relax \fontsize  {7}{8}\selectfont  $\leftarrow \joinrel  \rhook $}}{}{}D()}{40}{subsubsection.6.3.2.2}}
\newlabel{graphics_8cpp_a13a43e6d814de94978c515cb084873b1}{{6.3.2.2}{40}{\texorpdfstring {R\+O\+U\+N\+D()}{ROUND()}}{subsubsection.6.3.2.2}{}}
\@writefile{toc}{\contentsline {subsubsection}{\numberline {6.3.2.3}run()\hspace  {0.1cm}{\relax \fontsize  {8}{9.5}\selectfont  \abovedisplayskip 6\p@ plus2\p@ minus4\p@ \abovedisplayshortskip \z@ plus\p@ \belowdisplayshortskip 3\p@ plus\p@ minus2\p@ \def \leftmargin \leftmargini \parsep 4\p@ plus2\p@ minus\p@ \topsep 8\p@ plus2\p@ minus4\p@ \itemsep 4\p@ plus2\p@ minus\p@ {\leftmargin \leftmargini \topsep 3\p@ plus\p@ minus\p@ \parsep 2\p@ plus\p@ minus\p@ \itemsep \parsep }\belowdisplayskip \abovedisplayskip \ttfamily  [1/2]}}{40}{subsubsection.6.3.2.3}}
\newlabel{graphics_8cpp_a0861523e83bae88b69987cfb79dccbfa}{{6.3.2.3}{40}{\texorpdfstring {run()}{run()}\hspace {0.1cm}{\footnotesize \ttfamily [1/2]}}{subsubsection.6.3.2.3}{}}
\@writefile{toc}{\contentsline {subsubsection}{\numberline {6.3.2.4}run()\hspace  {0.1cm}{\relax \fontsize  {8}{9.5}\selectfont  \abovedisplayskip 6\p@ plus2\p@ minus4\p@ \abovedisplayshortskip \z@ plus\p@ \belowdisplayshortskip 3\p@ plus\p@ minus2\p@ \def \leftmargin \leftmargini \parsep 4\p@ plus2\p@ minus\p@ \topsep 8\p@ plus2\p@ minus4\p@ \itemsep 4\p@ plus2\p@ minus\p@ {\leftmargin \leftmargini \topsep 3\p@ plus\p@ minus\p@ \parsep 2\p@ plus\p@ minus\p@ \itemsep \parsep }\belowdisplayskip \abovedisplayskip \ttfamily  [2/2]}}{40}{subsubsection.6.3.2.4}}
\@writefile{toc}{\contentsline {subsection}{\numberline {6.3.3}Variable Documentation}{40}{subsection.6.3.3}}
\newlabel{graphics_8cpp_a40a0c0dd97e6a866f089490393685764}{{6.3.3}{40}{Variable Documentation}{subsection.6.3.3}{}}
\@writefile{toc}{\contentsline {subsubsection}{\numberline {6.3.3.1}figures}{40}{subsubsection.6.3.3.1}}
\newlabel{graphics_8cpp_a041ceee124d1b4999cff56ea55529fbe}{{6.3.3.1}{40}{\texorpdfstring {figures}{figures}}{subsubsection.6.3.3.1}{}}
\@writefile{toc}{\contentsline {subsubsection}{\numberline {6.3.3.2}running\discretionary {\unhbox \voidb@x \hbox {\relax \fontsize  {7}{8}\selectfont  $\leftarrow \joinrel  \rhook $}}{}{}Simulation}{40}{subsubsection.6.3.3.2}}
\newlabel{graphics_8cpp_a485f580bc91e4fbdab5c8f1cb080e96f}{{6.3.3.2}{40}{\texorpdfstring {running\+Simulation}{runningSimulation}}{subsubsection.6.3.3.2}{}}
\@writefile{toc}{\contentsline {subsubsection}{\numberline {6.3.3.3}running\discretionary {\unhbox \voidb@x \hbox {\relax \fontsize  {7}{8}\selectfont  $\leftarrow \joinrel  \rhook $}}{}{}Simulation\discretionary {\unhbox \voidb@x \hbox {\relax \fontsize  {7}{8}\selectfont  $\leftarrow \joinrel  \rhook $}}{}{}Time}{40}{subsubsection.6.3.3.3}}
\newlabel{graphics_8cpp_a35d868eb3000aaf61ae8c9a8f84ae532}{{6.3.3.3}{40}{\texorpdfstring {running\+Simulation\+Time}{runningSimulationTime}}{subsubsection.6.3.3.3}{}}
\@writefile{toc}{\contentsline {subsubsection}{\numberline {6.3.3.4}running\discretionary {\unhbox \voidb@x \hbox {\relax \fontsize  {7}{8}\selectfont  $\leftarrow \joinrel  \rhook $}}{}{}Simulation\discretionary {\unhbox \voidb@x \hbox {\relax \fontsize  {7}{8}\selectfont  $\leftarrow \joinrel  \rhook $}}{}{}Time\discretionary {\unhbox \voidb@x \hbox {\relax \fontsize  {7}{8}\selectfont  $\leftarrow \joinrel  \rhook $}}{}{}Step}{40}{subsubsection.6.3.3.4}}
\@writefile{toc}{\contentsline {section}{\numberline {6.4}graphics.\discretionary {\unhbox \voidb@x \hbox {\relax \fontsize  {7}{8}\selectfont  $\leftarrow \joinrel  \rhook $}}{}{}h File Reference}{41}{section.6.4}}
\newlabel{graphics_8h}{{6.4}{41}{graphics.\+h File Reference}{section.6.4}{}}
\@writefile{toc}{\contentsline {subsection}{\numberline {6.4.1}Function Documentation}{41}{subsection.6.4.1}}
\newlabel{graphics_8h_a13a43e6d814de94978c515cb084873b1}{{6.4.1}{41}{Function Documentation}{subsection.6.4.1}{}}
\@writefile{toc}{\contentsline {subsubsection}{\numberline {6.4.1.1}run()\hspace  {0.1cm}{\relax \fontsize  {8}{9.5}\selectfont  \abovedisplayskip 6\p@ plus2\p@ minus4\p@ \abovedisplayshortskip \z@ plus\p@ \belowdisplayshortskip 3\p@ plus\p@ minus2\p@ \def \leftmargin \leftmargini \parsep 4\p@ plus2\p@ minus\p@ \topsep 8\p@ plus2\p@ minus4\p@ \itemsep 4\p@ plus2\p@ minus\p@ {\leftmargin \leftmargini \topsep 3\p@ plus\p@ minus\p@ \parsep 2\p@ plus\p@ minus\p@ \itemsep \parsep }\belowdisplayskip \abovedisplayskip \ttfamily  [1/2]}}{41}{subsubsection.6.4.1.1}}
\newlabel{graphics_8h_a0861523e83bae88b69987cfb79dccbfa}{{6.4.1.1}{41}{\texorpdfstring {run()}{run()}\hspace {0.1cm}{\footnotesize \ttfamily [1/2]}}{subsubsection.6.4.1.1}{}}
\@writefile{toc}{\contentsline {subsubsection}{\numberline {6.4.1.2}run()\hspace  {0.1cm}{\relax \fontsize  {8}{9.5}\selectfont  \abovedisplayskip 6\p@ plus2\p@ minus4\p@ \abovedisplayshortskip \z@ plus\p@ \belowdisplayshortskip 3\p@ plus\p@ minus2\p@ \def \leftmargin \leftmargini \parsep 4\p@ plus2\p@ minus\p@ \topsep 8\p@ plus2\p@ minus4\p@ \itemsep 4\p@ plus2\p@ minus\p@ {\leftmargin \leftmargini \topsep 3\p@ plus\p@ minus\p@ \parsep 2\p@ plus\p@ minus\p@ \itemsep \parsep }\belowdisplayskip \abovedisplayskip \ttfamily  [2/2]}}{42}{subsubsection.6.4.1.2}}
\@writefile{toc}{\contentsline {section}{\numberline {6.5}R\discretionary {\unhbox \voidb@x \hbox {\relax \fontsize  {7}{8}\selectfont  $\leftarrow \joinrel  \rhook $}}{}{}E\discretionary {\unhbox \voidb@x \hbox {\relax \fontsize  {7}{8}\selectfont  $\leftarrow \joinrel  \rhook $}}{}{}A\discretionary {\unhbox \voidb@x \hbox {\relax \fontsize  {7}{8}\selectfont  $\leftarrow \joinrel  \rhook $}}{}{}D\discretionary {\unhbox \voidb@x \hbox {\relax \fontsize  {7}{8}\selectfont  $\leftarrow \joinrel  \rhook $}}{}{}M\discretionary {\unhbox \voidb@x \hbox {\relax \fontsize  {7}{8}\selectfont  $\leftarrow \joinrel  \rhook $}}{}{}E.\discretionary {\unhbox \voidb@x \hbox {\relax \fontsize  {7}{8}\selectfont  $\leftarrow \joinrel  \rhook $}}{}{}md File Reference}{42}{section.6.5}}
\newlabel{README_8md}{{6.5}{42}{R\+E\+A\+D\+M\+E.\+md File Reference}{section.6.5}{}}
\@writefile{toc}{\contentsline {section}{\numberline {6.6}simulation.\discretionary {\unhbox \voidb@x \hbox {\relax \fontsize  {7}{8}\selectfont  $\leftarrow \joinrel  \rhook $}}{}{}h File Reference}{42}{section.6.6}}
\newlabel{simulation_8h}{{6.6}{42}{simulation.\+h File Reference}{section.6.6}{}}
\@writefile{toc}{\contentsline {section}{\numberline {6.7}springmass.\discretionary {\unhbox \voidb@x \hbox {\relax \fontsize  {7}{8}\selectfont  $\leftarrow \joinrel  \rhook $}}{}{}cpp File Reference}{42}{section.6.7}}
\newlabel{springmass_8cpp}{{6.7}{42}{springmass.\+cpp File Reference}{section.6.7}{}}
\@writefile{toc}{\contentsline {subsection}{\numberline {6.7.1}Function Documentation}{43}{subsection.6.7.1}}
\newlabel{springmass_8cpp_a51af30a60f9f02777c6396b8247e356f}{{6.7.1}{43}{Function Documentation}{subsection.6.7.1}{}}
\@writefile{toc}{\contentsline {subsubsection}{\numberline {6.7.1.1}main()}{43}{subsubsection.6.7.1.1}}
\newlabel{springmass_8cpp_a0f7d372af30dcada3c8d4c73d3cfdbe7}{{6.7.1.1}{43}{\texorpdfstring {main()}{main()}}{subsubsection.6.7.1.1}{}}
\@writefile{toc}{\contentsline {subsubsection}{\numberline {6.7.1.2}operator$<$$<$()\hspace  {0.1cm}{\relax \fontsize  {8}{9.5}\selectfont  \abovedisplayskip 6\p@ plus2\p@ minus4\p@ \abovedisplayshortskip \z@ plus\p@ \belowdisplayshortskip 3\p@ plus\p@ minus2\p@ \def \leftmargin \leftmargini \parsep 4\p@ plus2\p@ minus\p@ \topsep 8\p@ plus2\p@ minus4\p@ \itemsep 4\p@ plus2\p@ minus\p@ {\leftmargin \leftmargini \topsep 3\p@ plus\p@ minus\p@ \parsep 2\p@ plus\p@ minus\p@ \itemsep \parsep }\belowdisplayskip \abovedisplayskip \ttfamily  [1/2]}}{43}{subsubsection.6.7.1.2}}
\newlabel{springmass_8cpp_a4529db441fab51d6df9a29216a22ee97}{{6.7.1.2}{43}{\texorpdfstring {operator$<$$<$()}{operator<<()}\hspace {0.1cm}{\footnotesize \ttfamily [1/2]}}{subsubsection.6.7.1.2}{}}
\@writefile{toc}{\contentsline {subsubsection}{\numberline {6.7.1.3}operator$<$$<$()\hspace  {0.1cm}{\relax \fontsize  {8}{9.5}\selectfont  \abovedisplayskip 6\p@ plus2\p@ minus4\p@ \abovedisplayshortskip \z@ plus\p@ \belowdisplayshortskip 3\p@ plus\p@ minus2\p@ \def \leftmargin \leftmargini \parsep 4\p@ plus2\p@ minus\p@ \topsep 8\p@ plus2\p@ minus4\p@ \itemsep 4\p@ plus2\p@ minus\p@ {\leftmargin \leftmargini \topsep 3\p@ plus\p@ minus\p@ \parsep 2\p@ plus\p@ minus\p@ \itemsep \parsep }\belowdisplayskip \abovedisplayskip \ttfamily  [2/2]}}{43}{subsubsection.6.7.1.3}}
\@writefile{toc}{\contentsline {section}{\numberline {6.8}springmass.\discretionary {\unhbox \voidb@x \hbox {\relax \fontsize  {7}{8}\selectfont  $\leftarrow \joinrel  \rhook $}}{}{}h File Reference}{43}{section.6.8}}
\newlabel{springmass_8h}{{6.8}{43}{springmass.\+h File Reference}{section.6.8}{}}
\@writefile{toc}{\contentsline {subsection}{\numberline {6.8.1}Macro Definition Documentation}{44}{subsection.6.8.1}}
\newlabel{springmass_8h_a86d8ad802eb726f5cef184892a3b45a4}{{6.8.1}{44}{Macro Definition Documentation}{subsection.6.8.1}{}}
\@writefile{toc}{\contentsline {subsubsection}{\numberline {6.8.1.1}E\discretionary {\unhbox \voidb@x \hbox {\relax \fontsize  {7}{8}\selectfont  $\leftarrow \joinrel  \rhook $}}{}{}A\discretionary {\unhbox \voidb@x \hbox {\relax \fontsize  {7}{8}\selectfont  $\leftarrow \joinrel  \rhook $}}{}{}R\discretionary {\unhbox \voidb@x \hbox {\relax \fontsize  {7}{8}\selectfont  $\leftarrow \joinrel  \rhook $}}{}{}T\discretionary {\unhbox \voidb@x \hbox {\relax \fontsize  {7}{8}\selectfont  $\leftarrow \joinrel  \rhook $}}{}{}H\discretionary {\unhbox \voidb@x \hbox {\relax \fontsize  {7}{8}\selectfont  $\leftarrow \joinrel  \rhook $}}{}{}\_\discretionary {\unhbox \voidb@x \hbox {\relax \fontsize  {7}{8}\selectfont  $\leftarrow \joinrel  \rhook $}}{}{}\discretionary {\unhbox \voidb@x \hbox {\relax \fontsize  {7}{8}\selectfont  $\leftarrow \joinrel  \rhook $}}{}{}G\discretionary {\unhbox \voidb@x \hbox {\relax \fontsize  {7}{8}\selectfont  $\leftarrow \joinrel  \rhook $}}{}{}R\discretionary {\unhbox \voidb@x \hbox {\relax \fontsize  {7}{8}\selectfont  $\leftarrow \joinrel  \rhook $}}{}{}A\discretionary {\unhbox \voidb@x \hbox {\relax \fontsize  {7}{8}\selectfont  $\leftarrow \joinrel  \rhook $}}{}{}V\discretionary {\unhbox \voidb@x \hbox {\relax \fontsize  {7}{8}\selectfont  $\leftarrow \joinrel  \rhook $}}{}{}I\discretionary {\unhbox \voidb@x \hbox {\relax \fontsize  {7}{8}\selectfont  $\leftarrow \joinrel  \rhook $}}{}{}TY}{44}{subsubsection.6.8.1.1}}
\newlabel{springmass_8h_a03ad3bae72a0ac7965460a63fd454f44}{{6.8.1.1}{44}{\texorpdfstring {E\+A\+R\+T\+H\+\_\+\+G\+R\+A\+V\+I\+TY}{EARTH\_GRAVITY}}{subsubsection.6.8.1.1}{}}
\@writefile{toc}{\contentsline {subsubsection}{\numberline {6.8.1.2}M\discretionary {\unhbox \voidb@x \hbox {\relax \fontsize  {7}{8}\selectfont  $\leftarrow \joinrel  \rhook $}}{}{}O\discretionary {\unhbox \voidb@x \hbox {\relax \fontsize  {7}{8}\selectfont  $\leftarrow \joinrel  \rhook $}}{}{}O\discretionary {\unhbox \voidb@x \hbox {\relax \fontsize  {7}{8}\selectfont  $\leftarrow \joinrel  \rhook $}}{}{}N\discretionary {\unhbox \voidb@x \hbox {\relax \fontsize  {7}{8}\selectfont  $\leftarrow \joinrel  \rhook $}}{}{}\_\discretionary {\unhbox \voidb@x \hbox {\relax \fontsize  {7}{8}\selectfont  $\leftarrow \joinrel  \rhook $}}{}{}\discretionary {\unhbox \voidb@x \hbox {\relax \fontsize  {7}{8}\selectfont  $\leftarrow \joinrel  \rhook $}}{}{}G\discretionary {\unhbox \voidb@x \hbox {\relax \fontsize  {7}{8}\selectfont  $\leftarrow \joinrel  \rhook $}}{}{}R\discretionary {\unhbox \voidb@x \hbox {\relax \fontsize  {7}{8}\selectfont  $\leftarrow \joinrel  \rhook $}}{}{}A\discretionary {\unhbox \voidb@x \hbox {\relax \fontsize  {7}{8}\selectfont  $\leftarrow \joinrel  \rhook $}}{}{}V\discretionary {\unhbox \voidb@x \hbox {\relax \fontsize  {7}{8}\selectfont  $\leftarrow \joinrel  \rhook $}}{}{}I\discretionary {\unhbox \voidb@x \hbox {\relax \fontsize  {7}{8}\selectfont  $\leftarrow \joinrel  \rhook $}}{}{}TY}{44}{subsubsection.6.8.1.2}}
\@writefile{toc}{\contentsline {subsection}{\numberline {6.8.2}Function Documentation}{45}{subsection.6.8.2}}
\newlabel{springmass_8h_a6e6659dcf321b29ea4f0f9e763d502d0}{{6.8.2}{45}{Function Documentation}{subsection.6.8.2}{}}
\@writefile{toc}{\contentsline {subsubsection}{\numberline {6.8.2.1}dot()}{45}{subsubsection.6.8.2.1}}
\newlabel{springmass_8h_a28a37cea996dfa0b6d7c048ac89227bb}{{6.8.2.1}{45}{\texorpdfstring {dot()}{dot()}}{subsubsection.6.8.2.1}{}}
\@writefile{toc}{\contentsline {subsubsection}{\numberline {6.8.2.2}operator$\ast $()\hspace  {0.1cm}{\relax \fontsize  {8}{9.5}\selectfont  \abovedisplayskip 6\p@ plus2\p@ minus4\p@ \abovedisplayshortskip \z@ plus\p@ \belowdisplayshortskip 3\p@ plus\p@ minus2\p@ \def \leftmargin \leftmargini \parsep 4\p@ plus2\p@ minus\p@ \topsep 8\p@ plus2\p@ minus4\p@ \itemsep 4\p@ plus2\p@ minus\p@ {\leftmargin \leftmargini \topsep 3\p@ plus\p@ minus\p@ \parsep 2\p@ plus\p@ minus\p@ \itemsep \parsep }\belowdisplayskip \abovedisplayskip \ttfamily  [1/2]}}{45}{subsubsection.6.8.2.2}}
\newlabel{springmass_8h_a3e6ab2ac27cc68b574eaea146bd714ce}{{6.8.2.2}{45}{\texorpdfstring {operator$\ast $()}{operator*()}\hspace {0.1cm}{\footnotesize \ttfamily [1/2]}}{subsubsection.6.8.2.2}{}}
\@writefile{toc}{\contentsline {subsubsection}{\numberline {6.8.2.3}operator$\ast $()\hspace  {0.1cm}{\relax \fontsize  {8}{9.5}\selectfont  \abovedisplayskip 6\p@ plus2\p@ minus4\p@ \abovedisplayshortskip \z@ plus\p@ \belowdisplayshortskip 3\p@ plus\p@ minus2\p@ \def \leftmargin \leftmargini \parsep 4\p@ plus2\p@ minus\p@ \topsep 8\p@ plus2\p@ minus4\p@ \itemsep 4\p@ plus2\p@ minus\p@ {\leftmargin \leftmargini \topsep 3\p@ plus\p@ minus\p@ \parsep 2\p@ plus\p@ minus\p@ \itemsep \parsep }\belowdisplayskip \abovedisplayskip \ttfamily  [2/2]}}{45}{subsubsection.6.8.2.3}}
\newlabel{springmass_8h_a31e3edd3b25d0dfe3b9a0b07e93f3365}{{6.8.2.3}{45}{\texorpdfstring {operator$\ast $()}{operator*()}\hspace {0.1cm}{\footnotesize \ttfamily [2/2]}}{subsubsection.6.8.2.3}{}}
\@writefile{toc}{\contentsline {subsubsection}{\numberline {6.8.2.4}operator+()}{45}{subsubsection.6.8.2.4}}
\newlabel{springmass_8h_a1a3d5fba2778a3d4c97629baca753853}{{6.8.2.4}{45}{\texorpdfstring {operator+()}{operator+()}}{subsubsection.6.8.2.4}{}}
\@writefile{toc}{\contentsline {subsubsection}{\numberline {6.8.2.5}operator-\/()}{45}{subsubsection.6.8.2.5}}
\newlabel{springmass_8h_a8f77c1d121d92271c1c736e7b9a38a93}{{6.8.2.5}{45}{\texorpdfstring {operator-\/()}{operator-()}}{subsubsection.6.8.2.5}{}}
\@writefile{toc}{\contentsline {subsubsection}{\numberline {6.8.2.6}operator/()}{45}{subsubsection.6.8.2.6}}
\@writefile{toc}{\contentsline {section}{\numberline {6.9}test-\/ball-\/graphics.cpp File Reference}{46}{section.6.9}}
\newlabel{test-ball-graphics_8cpp}{{6.9}{46}{test-\/ball-\/graphics.cpp File Reference}{section.6.9}{}}
\@writefile{toc}{\contentsline {subsection}{\numberline {6.9.1}Function Documentation}{46}{subsection.6.9.1}}
\newlabel{test-ball-graphics_8cpp_a3c04138a5bfe5d72780bb7e82a18e627}{{6.9.1}{46}{Function Documentation}{subsection.6.9.1}{}}
\@writefile{toc}{\contentsline {subsubsection}{\numberline {6.9.1.1}main()}{46}{subsubsection.6.9.1.1}}
\@writefile{toc}{\contentsline {section}{\numberline {6.10}test-\/ball.cpp File Reference}{47}{section.6.10}}
\newlabel{test-ball_8cpp}{{6.10}{47}{test-\/ball.cpp File Reference}{section.6.10}{}}
\@writefile{toc}{\contentsline {subsection}{\numberline {6.10.1}Function Documentation}{47}{subsection.6.10.1}}
\newlabel{test-ball_8cpp_a3c04138a5bfe5d72780bb7e82a18e627}{{6.10.1}{47}{Function Documentation}{subsection.6.10.1}{}}
\@writefile{toc}{\contentsline {subsubsection}{\numberline {6.10.1.1}main()}{47}{subsubsection.6.10.1.1}}
\newlabel{test-ball_8cpp_aebb8c97bf7a243df91f47bf94659f02f}{{6.10.1.1}{47}{\texorpdfstring {main()}{main()}}{subsubsection.6.10.1.1}{}}
\@writefile{toc}{\contentsline {subsubsection}{\numberline {6.10.1.2}run()}{47}{subsubsection.6.10.1.2}}
\@writefile{toc}{\contentsline {section}{\numberline {6.11}test-\/springmass-\/graphics.cpp File Reference}{48}{section.6.11}}
\newlabel{test-springmass-graphics_8cpp}{{6.11}{48}{test-\/springmass-\/graphics.cpp File Reference}{section.6.11}{}}
\@writefile{toc}{\contentsline {subsection}{\numberline {6.11.1}Function Documentation}{48}{subsection.6.11.1}}
\newlabel{test-springmass-graphics_8cpp_a3c04138a5bfe5d72780bb7e82a18e627}{{6.11.1}{48}{Function Documentation}{subsection.6.11.1}{}}
\@writefile{toc}{\contentsline {subsubsection}{\numberline {6.11.1.1}main()}{48}{subsubsection.6.11.1.1}}
\@writefile{toc}{\contentsline {section}{\numberline {6.12}test-\/springmass.cpp File Reference}{48}{section.6.12}}
\newlabel{test-springmass_8cpp}{{6.12}{48}{test-\/springmass.cpp File Reference}{section.6.12}{}}
\@writefile{toc}{\contentsline {subsection}{\numberline {6.12.1}Function Documentation}{49}{subsection.6.12.1}}
\newlabel{test-springmass_8cpp_a3c04138a5bfe5d72780bb7e82a18e627}{{6.12.1}{49}{Function Documentation}{subsection.6.12.1}{}}
\@writefile{toc}{\contentsline {subsubsection}{\numberline {6.12.1.1}main()}{49}{subsubsection.6.12.1.1}}
\@writefile{toc}{\contentsline {chapter}{Index}{51}{section*.72}}
